<?xml version="1.0" encoding="UTF-8" standalone="no"?>
<svg xmlns="http://www.w3.org/2000/svg" data-name="Group 29" height="60" id="Group_29" viewBox="0 0 128 128" width="60">
  <g data-name="Group 7" id="Group_7">
    <rect data-name="Rectangle Copy 3" fill="#900" height="128" id="Rectangle_Copy_3" rx="64" width="128"/>
    <g data-name="BAN/BAN005" id="BAN_BAN005" transform="translate(24 24)">
      <g data-name="Group 42" id="Group_42">
        <rect fill="none" height="80" id="Rectangle" width="80"/>
        <g data-name="BAN/BAN005" id="BAN_BAN005-2" transform="translate(10 10)">
          <path d="M23,59.87A1.669,1.669,0,0,1,21.338,58.2v-5.54a.726.726,0,0,0-.508-.644A23.55,23.55,0,0,1,14.4,48.291a.842.842,0,0,0-.513-.194.594.594,0,0,0-.3.08L8.78,50.954a1.7,1.7,0,0,1-.831.22A1.665,1.665,0,0,1,6.5,50.341L.225,39.463a1.663,1.663,0,0,1,.608-2.276l4.789-2.767a.746.746,0,0,0,.319-.781,22.537,22.537,0,0,1,0-7.4.753.753,0,0,0-.319-.788L.833,22.683a1.663,1.663,0,0,1-.608-2.276L6.5,9.528A1.647,1.647,0,0,1,7.513,8.75a1.744,1.744,0,0,1,.435-.055,1.627,1.627,0,0,1,.832.224L13.587,11.7a.609.609,0,0,0,.3.076.838.838,0,0,0,.519-.2,23.772,23.772,0,0,1,6.422-3.724.721.721,0,0,0,.511-.644V1.667A1.669,1.669,0,0,1,23,0H35.57a1.669,1.669,0,0,1,1.667,1.667v5.54a.712.712,0,0,0,.5.641,23.758,23.758,0,0,1,6.429,3.731.861.861,0,0,0,.514.2.614.614,0,0,0,.306-.082L49.8,8.919a1.631,1.631,0,0,1,.832-.224,1.739,1.739,0,0,1,.435.055,1.647,1.647,0,0,1,1.009.778L58.35,20.407a1.663,1.663,0,0,1-.608,2.276l-4.789,2.767a.75.75,0,0,0-.319.785,22.532,22.532,0,0,1,0,7.4.743.743,0,0,0,.316.781l4.792,2.77a1.663,1.663,0,0,1,.608,2.276L52.07,50.341a1.663,1.663,0,0,1-1.443.833,1.682,1.682,0,0,1-.833-.221l-4.808-2.773a.576.576,0,0,0-.305-.086.838.838,0,0,0-.516.2,23.554,23.554,0,0,1-6.419,3.724.725.725,0,0,0-.511.644V58.2A1.669,1.669,0,0,1,35.57,59.87ZM16.5,45.7a20.249,20.249,0,0,0,5.521,3.2,4.026,4.026,0,0,1,2.647,3.757v3.874H33.9V52.663a4.026,4.026,0,0,1,2.65-3.757,20.282,20.282,0,0,0,5.514-3.2,4.2,4.2,0,0,1,2.615-.942,3.961,3.961,0,0,1,1.975.529l3.36,1.94,4.616-7.995-3.346-1.933a4.027,4.027,0,0,1-1.94-4.206,19.357,19.357,0,0,0,0-6.325,4.05,4.05,0,0,1,1.94-4.209l3.346-1.933L50.02,12.637,46.654,14.58a3.942,3.942,0,0,1-1.97.529,4.205,4.205,0,0,1-2.617-.942,20.15,20.15,0,0,0-5.517-3.2A4.016,4.016,0,0,1,33.9,7.207V3.334H24.672V7.207a4.022,4.022,0,0,1-2.653,3.759,20.2,20.2,0,0,0-5.511,3.2,4.18,4.18,0,0,1-2.616.944,3.961,3.961,0,0,1-1.967-.524L8.555,12.637,3.942,20.632l3.347,1.933a4.05,4.05,0,0,1,1.94,4.209,19.374,19.374,0,0,0,0,6.328,4.03,4.03,0,0,1-1.943,4.206L3.942,39.238l4.616,7.995,3.362-1.943a3.926,3.926,0,0,1,1.969-.529A4.183,4.183,0,0,1,16.5,45.7Zm1.214-9.228H15.287l4.066-12.958a13.517,13.517,0,0,1,3.1-.3l4.142,13.261h-2.6l-.76-2.736H18.517l-.8,2.736h0Zm1.407-4.789h3.534L20.93,25.53Zm22.742,4.788H39.4v-13a9.839,9.839,0,0,1,2.47-.323V36.473h0Zm-11.115,0H28.283V23.326A24.572,24.572,0,0,1,31.97,23c4.46,0,5.4,2.418,5.4,4.446,0,2.915-1.939,4.655-5.187,4.655H30.753v4.369h0Zm0-11.362V30.09H32.16a2.348,2.348,0,0,0,2.66-2.545,2.457,2.457,0,0,0-.641-1.831,3,3,0,0,0-2.152-.677A11.126,11.126,0,0,0,30.753,25.112Z" data-name="Combined Shape" fill="#fff" id="Combined_Shape" transform="translate(0.713 -0.003)"/>
        </g>
      </g>
    </g>
  </g>
</svg>
