<?xml version="1.0" encoding="UTF-8" standalone="no"?>
<svg xmlns="http://www.w3.org/2000/svg" height="59" viewBox="0 0 88 88" width="59">
    <g fill="none" fill-rule="evenodd">
        <g fill="#EC0000">
            <g>
                <g>
                    <g>
                        <g>
                            <g>
                                <path d="M56.94 7.332c1.013 0 1.834.821 1.834 1.834v25.806c0 1.012-.821 1.833-1.834 1.833-1.012 0-1.833-.82-1.833-1.833V12.068l-5.35 2.564c-.491.236-1.063.24-1.559.012l-7.19-3.313-7.189 3.313c-.487.224-1.047.224-1.534 0l-7.19-3.313-7.185 3.313c-.496.228-1.068.224-1.56-.012L11 12.067v63.907l5.366-2.466c.486-.223 1.045-.223 1.531 0l7.195 3.308 7.198-3.308c.486-.223 1.045-.223 1.531 0l7.964 3.66c.92.423 1.323 1.511.9 2.431-.422.92-1.51 1.323-2.43.9l-7.2-3.307-7.198 3.308c-.486.223-1.045.223-1.531 0l-7.195-3.308L9.932 80.5c-1.215.558-2.599-.33-2.599-1.666V9.167c0-.916.671-1.675 1.549-1.811l.021-.003c.086-.013.174-.02.263-.02l-.137.006c.051-.005.104-.007.157-.007.271.006.52.065.746.169l.046.011 7.18 3.441 7.17-3.306c.487-.224 1.048-.224 1.535 0l7.19 3.313 7.188-3.313c.487-.224 1.048-.224 1.535 0l7.174 3.306 7.18-3.44.792-.18zm8.184 33.001c1.012 0 1.833.821 1.833 1.834v4.364l2.502 1.435 3.836-2.195c.874-.5 1.988-.202 2.495.668l4.627 7.938c.513.88.21 2.01-.673 2.515l-3.793 2.17v2.875l3.792 2.167c.884.505 1.187 1.635.674 2.515l-4.627 7.938c-.507.87-1.62 1.168-2.495.668L69.46 73.03l-2.502 1.438v4.365c0 1.013-.82 1.834-1.833 1.834h-9.251c-1.013 0-1.834-.821-1.834-1.834v-4.365l-2.502-1.438-3.836 2.195c-.874.5-1.988.202-2.495-.668l-4.624-7.939c-.512-.88-.21-2.008.674-2.514l3.789-2.167v-2.875l-3.79-2.17c-.883-.506-1.185-1.635-.673-2.514l4.624-7.938c.507-.87 1.62-1.169 2.495-.669l3.837 2.195 2.501-1.435v-4.364c0-1.013.821-1.834 1.834-1.834h9.25zM63.29 44h-5.584v3.593c0 .657-.351 1.264-.921 1.59L52.45 51.67c-.564.323-1.258.324-1.823 0l-3.17-1.813-2.778 4.77 3.11 1.781c.57.327.922.934.922 1.591v5.002c0 .657-.353 1.265-.923 1.591L44.68 66.37l2.778 4.77 3.17-1.814c.564-.324 1.258-.323 1.823.001l4.334 2.49c.57.327.92.933.92 1.59V77h5.584v-3.593c0-.657.351-1.263.92-1.59l4.334-2.49c.565-.324 1.26-.325 1.824-.001l3.17 1.814 2.78-4.77-3.11-1.778c-.57-.326-.923-.933-.923-1.591v-5.002c0-.657.352-1.264.922-1.59l3.112-1.782-2.781-4.77-3.17 1.814c-.565.323-1.258.322-1.823-.001l-4.334-2.486c-.57-.327-.92-.934-.92-1.59V44zM60.5 56.833c2.022 0 3.667 1.643 3.667 3.667s-1.645 3.667-3.667 3.667c-2.025 0-3.667-1.642-3.667-3.667s1.642-3.667 3.667-3.667zm-25.667-9.166c1.013 0 1.834.82 1.834 1.833s-.821 1.834-1.834 1.834H20.167c-1.013 0-1.834-.821-1.834-1.834 0-1.012.821-1.833 1.834-1.833zm11-11c1.013 0 1.834.82 1.834 1.833s-.821 1.834-1.834 1.834H20.167c-1.013 0-1.834-.821-1.834-1.834 0-1.012.821-1.833 1.834-1.833zm0-11c1.013 0 1.834.82 1.834 1.833s-.821 1.834-1.834 1.834H20.167c-1.013 0-1.834-.821-1.834-1.834 0-1.012.821-1.833 1.834-1.833z" transform="translate(-676 -635) translate(208 510) translate(367 125) translate(101)"/>
                            </g>
                        </g>
                    </g>
                </g>
            </g>
        </g>
    </g>
</svg>
